{
    "type": "minecraft:crafting_shaped",
    "pattern": [
        "S S",
        "SSS",
        "SSS"
    ],
    "key": {
        "S": {
            "item": "minecraft:string"
        }
    },
    "result": {
        "item": "asbestos:ppe_chestplate"
    }
}